{
  "files": {
    "main.css": "/static/css/main.133294fe.chunk.css",
    "main.js": "/static/js/main.42db1047.chunk.js",
    "main.js.map": "/static/js/main.42db1047.chunk.js.map",
    "runtime-main.js": "/static/js/runtime-main.37e514c2.js",
    "runtime-main.js.map": "/static/js/runtime-main.37e514c2.js.map",
    "static/js/2.483e02d3.chunk.js": "/static/js/2.483e02d3.chunk.js",
    "static/js/2.483e02d3.chunk.js.map": "/static/js/2.483e02d3.chunk.js.map",
    "index.html": "/index.html",
    "precache-manifest.69bbf97bea8744c8241562006f6a17fc.js": "/precache-manifest.69bbf97bea8744c8241562006f6a17fc.js",
    "service-worker.js": "/service-worker.js",
    "static/css/main.133294fe.chunk.css.map": "/static/css/main.133294fe.chunk.css.map",
    "static/media/app.css": "/static/media/FiraSansMedium.c4dec708.ttf"
  }
}